…
### Palabras más utilizadas

¿Cuáles fueron las 30 palabras más utilizadas en los tweets?:

``` r
tweets_tidy %>% group_by(token) %>% count(token) %>% 
  arrange(desc(n)) %>% print(n=30)
```

    ## # A tibble: 2,650 x 2
    ## # Groups:   token [2,650]
    ##    token            n
    ##    <chr>        <int>
    ##  1 caracas       1515
    ##  2 de            1342
    ##  3 en            1258
    ##  4 apagón        1111
    ##  5 la            1074
    ##  6 gran           599
    ##  7 el             537
    ##  8 sinluz         471
    ##  9 sep            431
    ## 10 sin            398
    ## 11 zonas          379
    ## 12 se             350
    ## 13 varias         340
    ## 14 este           301
    ## 15 un             274
    ## 16 que            272
    ## 17 los            262
    ## 18 del            256
    ## 19 por            254
    ## 20 nuevo          200
    ## 21 domingo        199
    ## 22 sectores       184
    ## 23 luz            182
    ## 24 vargas         181
    ## 25 reportan       179
    ## 26 electricidad   163
    ## 27 apagon         137
    ## 28 hasta          137
    ## 29 no             132
    ## 30 varios         132
    ## # … with 2,620 more rows
…
# palabras sin stopwords
tweets_tidy2 <- tweets_tidy %>% anti_join(lista_stopwords.df)
```

    ## Joining, by = "token"

y de nuevo visualizamos las palabras más comúnes:

``` r
tweets_tidy2 %>% group_by(token) %>% count(token) %>% 
  top_n(10, n) %>% arrange(desc(n)) %>% print(n=30)
```

    ## # A tibble: 2,522 x 2
    ## # Groups:   token [2,522]
    ##    token            n
    ##    <chr>        <int>
    ##  1 caracas       1515
    ##  2 apagón        1111
    ##  3 gran           599
    ##  4 sinluz         471
    ##  5 sep            431
    ##  6 sin            398
    ##  7 zonas          379
    ##  8 varias         340
    ##  9 nuevo          200
    ## 10 domingo        199
    ## 11 sectores       184
    ## 12 luz            182
    ## 13 vargas         181
    ## 14 reportan       179
    ## 15 electricidad   163
    ## 16 apagon         137
    ## 17 no             132
    ## 18 varios         132
    ## 19 servicio       122
    ## 20 miranda        119
    ## 21 cuándo         113
    ## 22 días           111
    ## 23 afecta         109
    ## 24 afectó         106
    ## 25 masivo         104
    ## 26 aeropuerto     103
    ## 27 cuarto         103
    ## 28 tener          102
    ## 29 gracias        101
    ## 30 amplio          99
    ## # … with 2,492 more rows
…
Al igual que con las palabras individuales podemos contar el número de
veces que aparece cada bigrama y omitir los bigramas conformados por
palabras no interesantes que se encuentran en la lista de “stopwords”.

``` r
bigramas %>% count(bigrama, sort = TRUE)
```

    ## # A tibble: 8,111 x 2
    ##    bigrama          n
    ##    <chr>        <int>
    ##  1 gran caracas   548
    ##  2 la gran        509
    ##  3 apagón en      504
    ##  4 de la          351
    ##  5 zonas de       351
    ##  6 en caracas     338
    ##  7 de caracas     333
    ##  8 varias zonas   314
    ##  9 en la          257
    ## 10 nuevo apagón   181
    ## # … with 8,101 more rows
…
Los unimos de nuevo y volvemos a contar la frecuencia de su ocurrencia:

``` r
bigramas <- bigrams_separados %>%
  unite(bigrama, palabra1, palabra2, sep = " ")
# Nuevo contaje para identificar los bigramas más frecuentes
bigramas %>% count(bigrama, sort = TRUE) %>% print(n = 20)
```

    ## # A tibble: 3,560 x 2
    ##    bigrama                n
    ##    <chr>              <int>
    ##  1 gran caracas         548
    ##  2 varias zonas         314
    ##  3 nuevo apagón         181
    ##  4 sin luz              132
    ##  5 sin electricidad     126
    ##  6 reportan apagón      123
    ##  7 varios sectores      119
    ##  8 apagón masivo        104
    ##  9 cuarto apagón        103
    ## 10 sinluz gracias        97
    ## 11 amplio panorama       96
    ## 12 palos grandes         84
    ## 13 sep sinluz            83
    ## 14 servicio eléctrico    83
    ## 15 caracas sinluz        77
    ## 16 apagón afectó         76
    ## 17 afecta varias         74
    ## 18 apagón afecta         72
    ## 19 afectó varias         70
    ## 20 sin servicio          66
    ## # … with 3,540 more rows
…
#### Revisando el análisis de sentimientos usando bigramas

El uso de una negación antes de una palabra dada puede cambiar
completamente la polaridad del texto. Solo como ejemplo, veamos cuantas
veces la palabra *no* es la primera palabra de una bigrama:

``` r
no_palabras =bigrams_separados %>%
  filter(palabra1 == "no") %>%
  count(palabra1, palabra2, sort = TRUE)
no_palabras
```

    ## # A tibble: 29 x 3
    ##    palabra1 palabra2     n
    ##    <chr>    <chr>    <int>
    ##  1 no       llueve      10
    ##  2 no       trabaja      9
    ##  3 no       solo         6
    ##  4 no       quiere       5
    ##  5 no       hace         4
    ##  6 no       sirve        3
    ##  7 no       aguanta      2
    ##  8 no       pueden       2
    ##  9 no       salimos      2
    ## 10 no       colocan      1
    ## # … with 19 more rows
…
